Group 26 - Project
…
"darkgoldenrod1"

[1] "darkgoldenrod1"

"red"

[1] "red"

The variables that we found to be interesting to analyze from a socioeconomic perspective are:

rhc_aug |> 
  select(age, sex, edu, race, income, ninsclas)

# A tibble: 5,612 × 6
     age sex      edu race  income     ninsclas          
   <dbl> <chr>  <dbl> <chr> <chr>      <chr>             
 1    70 Male      12 white Under $11k Medicare          
 2    78 Female    12 white Under $11k Private & Medicare
 3    46 Female    14 white $25-$50k   Private           
 4    75 Female     9 white $11-$25k   Private & Medicare
 5    68 Male      10 white Under $11k Medicare          
 6    86 Female     8 white Under $11k Medicare          
 7    55 Male      14 white $25-$50k   Private           
 8    44 Male      12 white $25-$50k   Private           
 9    18 Female    13 white Under $11k Private           
10    48 Female    11 white Under $11k Medicaid          
# ℹ 5,602 more rows
…
