pca
…
PCA analysis

We change the swang1 variable to 1 if they had RHC performed and 0 if they did not. Furthermore, we choose the variables we wanted to investigate. Then we used the command prcomp, which, admittedly is a bit of a black box function. It performs a principal component analysis on our data, and also standardizes the data.

rhc_for_pca <- rhc_aug |>
  select(c(death, swang1, age, edu, 
           meanbp1, resp1, hrt1, 
           crea1, pot1, surv2md1)) |> 
    mutate(death = case_when(
         death == 0 ~ "Alive",
         death == 1 ~ "Dead"))
rhc_for_pca

# A tibble: 5,612 × 10
   death swang1   age   edu meanbp1 resp1  hrt1 crea1  pot1 surv2md1
   <chr>  <dbl> <dbl> <dbl>   <dbl> <dbl> <dbl> <dbl> <dbl>    <dbl>
 1 Alive      0    70    12      41    10   124 1.20   4       0.641
 2 Dead       1    78    12      63    38   137 0.600  3.30    0.755
 3 Alive      1    46    14      57    40   130 2.60   2.90    0.317
 4 Dead       0    75     9      55    26    58 1.70   5.80    0.441
 5 Dead       1    68    10      65    27   125 3.60   5.80    0.437
 6 Alive      0    86     8     115    36   134 1.40   5.40    0.665
 7 Alive      0    55    14      67    10   135 1      3.70    0.339
 8 Dead       0    44    12     128    34   102 0.700  4.10    0.632
 9 Alive      0    18    13      53    30   118 1.70   3.10    0.503
10 Alive      1    48    11      73    40   141 0.5    3.10    0.669
# ℹ 5,602 more rows
…
I plot the coordinates of the first and second PCs, as well as the result of the different observations.

rhc_for_pca

# A tibble: 5,612 × 10
   death swang1   age   edu meanbp1 resp1  hrt1 crea1  pot1 surv2md1
   <chr>  <dbl> <dbl> <dbl>   <dbl> <dbl> <dbl> <dbl> <dbl>    <dbl>
 1 Alive      0    70    12      41    10   124 1.20   4       0.641
 2 Dead       1    78    12      63    38   137 0.600  3.30    0.755
 3 Alive      1    46    14      57    40   130 2.60   2.90    0.317
 4 Dead       0    75     9      55    26    58 1.70   5.80    0.441
 5 Dead       1    68    10      65    27   125 3.60   5.80    0.437
 6 Alive      0    86     8     115    36   134 1.40   5.40    0.665
 7 Alive      0    55    14      67    10   135 1      3.70    0.339
 8 Dead       0    44    12     128    34   102 0.700  4.10    0.632
 9 Alive      0    18    13      53    30   118 1.70   3.10    0.503
10 Alive      1    48    11      73    40   141 0.5    3.10    0.669
# ℹ 5,602 more rows
…
ggsave(filename = "07_PCA_explained_6.png",
       plot = p1,
       device = "png",
       path = "../results",
       scale = 1,
       limitsize = TRUE)

Saving 7 x 5 in image

I take a look at the rotation matrix

pca_fit |> 
  tidy(matrix = "rotation")

# A tibble: 81 × 3
   column    PC   value
   <chr>  <dbl>   <dbl>
 1 swang1     1  0.212 
 2 swang1     2  0.475 
 3 swang1     3  0.144 
 4 swang1     4  0.328 
 5 swang1     5 -0.475 
 6 swang1     6  0.325 
 7 swang1     7 -0.459 
 8 swang1     8 -0.0306
 9 swang1     9 -0.240 
10 age        1  0.387 
# ℹ 71 more rows
…
