Logistic modelling
…
ℹ Use `spec()` to retrieve the full column specification for this data.
ℹ Specify the column types or set `show_col_types = FALSE` to quiet this message.

First we see if there is a general pattern in the mean values of the APACHE scores.

#Means of aps1 for each dignosis
rhc_aug |> 
  group_by(Diagnosis, death) |> 
  summarise(mu=mean(aps1))

`summarise()` has grouped output by 'Diagnosis'. You can override using the
`.groups` argument.

# A tibble: 21 × 3
# Groups:   Diagnosis [11]
   Diagnosis          death    mu
   <chr>              <dbl> <dbl>
 1 card                   0  45.1
 2 card                   1  53.6
 3 gastr                  0  50.7
 4 gastr                  1  59.8
 5 hema                   0  58.7
 6 hema                   1  66.9
 7 meta                   0  52.3
 8 meta                   1  59.5
 9 multiple diagnosis     0  55.5
10 multiple diagnosis     1  62.2
# ℹ 11 more rows
…
#View one of them to test
aps1_data_nested |> 
  filter(Diagnosis == "card") |> 
  pull()

[[1]]
# A tibble: 1,204 × 52
    ptID cat1         cat2  ca    death cardiohx chfhx dementhx psychhx chrpulhx
   <dbl> <chr>        <chr> <chr> <dbl>    <dbl> <dbl>    <dbl>   <dbl>    <dbl>
 1     3 MOSF w/Mali… MOSF… Yes       0        0     0        0       0        0
 2     5 MOSF w/Seps… <NA>  No        1        0     0        0       0        0
 3    12 ARF          <NA>  No        0        0     0        0       0        0
 4    13 MOSF w/Seps… <NA>  No        1        1     0        0       0        0
 5    15 ARF          <NA>  No        0        0     0        0       0        0
 6    23 CHF          <NA>  No        1        0     1        0       0        0
 7    25 CHF          <NA>  No        1        1     1        0       0        0
 8    26 ARF          <NA>  No        0        0     0        0       0        0
 9    29 Coma         <NA>  No        1        0     1        0       0        1
10    32 CHF          <NA>  No        0        1     1        0       0        0
# ℹ 1,194 more rows
# ℹ 42 more variables: renalhx <dbl>, liverhx <dbl>, gibledhx <dbl>,
#   malighx <dbl>, immunhx <dbl>, transhx <dbl>, amihx <dbl>, age <dbl>,
#   sex <chr>, edu <dbl>, surv2md1 <dbl>, das2d3pc <dbl>, t3d30 <dbl>,
#   dth30 <chr>, aps1 <dbl>, scoma1 <dbl>, meanbp1 <dbl>, wblc1 <dbl>,
#   hrt1 <dbl>, resp1 <dbl>, temp1 <dbl>, pafi1 <dbl>, alb1 <dbl>, hema1 <dbl>,
#   bili1 <dbl>, crea1 <dbl>, sod1 <dbl>, pot1 <dbl>, paco21 <dbl>, …
…
